The Global Burden of Disease dataset
…
Cite the data as follows:

Global Burden of Disease Collaborative Network. Global Burden of
Disease Study 2019 (GBD 2019) Results. Seattle, United States: Institute
for Health Metrics and Evaluation (IHME), 2020. Available from https://vizhub.healthdata.org/gbd-results/.

Quick intro to the Global Burden of Disease dataset

The GBD dataset contains data on death and disability, the diseases
and injuries that cause them, and the risk factors for these causes.

gbd
#> This is a `gbd_dataset` object. For more details, including terms of use, run
#> `?gbd_filter`.
#> # A tibble: 1,516 × 12
#>    cause    rei   metric    val measure  lower  upper location sex   age    year
#>    <chr>    <chr> <chr>   <dbl> <chr>    <dbl>  <dbl> <chr>    <chr> <chr> <dbl>
#>  1 all cau… all … rate     318. deaths    306.   330. United … both  age-…  2019
#>  2 all cau… all … rate     453. deaths    426.   479. Global   both  age-…  2019
#>  3 all cau… all … rate   11558. DALYs   10462. 12722. United … both  age-…  2019
#>  4 all cau… all … rate   15746. DALYs   14498. 17192. Global   both  age-…  2019
#>  5 all cau… all … rate    4199. YLDs     3136.  5303. United … both  age-…  2019
#>  6 all cau… all … rate    3077. YLDs     2299.  3946. Global   both  age-…  2019
#>  7 all cau… beha… rate     211. deaths    201.   223. United … both  age-…  2019
#>  8 all cau… beha… rate     280. deaths    259.   304. Global   both  age-…  2019
#>  9 all cau… beha… rate    8367. DALYs    7647.  9133. United … both  age-…  2019
#> 10 all cau… beha… rate   10961. DALYs   10006. 12100. Global   both  age-…  2019
#> # ℹ 1,506 more rows
#> # ℹ 1 more variable: estimate <chr>
…
better has functions that will clean the GBD data and
codebook, and save it as a gbd_dataset object into an
.rds file. You can then easily read-in this file.

library(tidyverse) # for convenient tibble printing and more
library(better)
gbd_save()
gbd <- gbd_data()
gbd

#> Warning:
#> This is a `gbd_dataset` object. For more details, including terms of use, run
#> `?gbd_filter`.
#> # A tibble: 1,516 × 12
#>    cause    rei   metric    val measure  lower  upper location sex   age    year
#>    <chr>    <chr> <chr>   <dbl> <chr>    <dbl>  <dbl> <chr>    <chr> <chr> <dbl>
#>  1 all cau… all … rate     318. deaths    306.   330. United … both  age-…  2019
#>  2 all cau… all … rate     453. deaths    426.   479. Global   both  age-…  2019
#>  3 all cau… all … rate   11558. DALYs   10462. 12722. United … both  age-…  2019
#>  4 all cau… all … rate   15746. DALYs   14498. 17192. Global   both  age-…  2019
#>  5 all cau… all … rate    4199. YLDs     3136.  5303. United … both  age-…  2019
#>  6 all cau… all … rate    3077. YLDs     2299.  3946. Global   both  age-…  2019
#>  7 all cau… beha… rate     211. deaths    201.   223. United … both  age-…  2019
#>  8 all cau… beha… rate     280. deaths    259.   304. Global   both  age-…  2019
#>  9 all cau… beha… rate    8367. DALYs    7647.  9133. United … both  age-…  2019
#> 10 all cau… beha… rate   10961. DALYs   10006. 12100. Global   both  age-…  2019
#> # ℹ 1,506 more rows
#> # ℹ 1 more variable: estimate <chr>
…
