…
gbd_browse()
# copy output on clipboard
capture(cat(clipboard()),collapse="\n#> ")
# de newlines at user input
```
```{r, eval = FALSE}
gbd_browse_cause()
#> Category:
#> # A tibble: 1 × 9
#>   cause_id cause_name parent_id parent_name level cause_outline sort_order yll_only yld_only
#>      <dbl> <chr>          <dbl> <chr>       <dbl> <chr>              <dbl> <chr>    <chr>   
#> 1      294 All causes       294 All causes      0 Total                  1 NA       NA      
#> 
#> Data already downloaded for this parent category:
#> # A tibble: 1,392 × 19
#>   cause      rei    metric     val measure     upper   lower locat…¹ sex   age    year measu…² locat…³ sex_id age_id cause…⁴
#>   <chr>      <chr>  <chr>    <dbl> <chr>   <dbl>   <dbl> <chr>   <chr> <chr> <dbl>   <dbl>   <dbl>  <dbl>  <dbl>   <dbl>
#> 1 All causes Heari… Number 1.20e+6 YLDs  1.71e+6 8.27e+5 United… Male  All …  2019       3     102      1     22     294
#> 2 All causes Heari… Number 1.03e+6 YLDs  1.42e+6 7.25e+5 United… Fema… All …  2019       3     102      2     22     294
#> 3 All causes Heari… Number 2.24e+6 YLDs  3.11e+6 1.56e+6 United… Both  All …  2019       3     102      3     22     294
#> 4 All causes Heari… Perce… 4.22e-2 YLDs  5.55e-2 3.24e-2 United… Male  All …  2019       3     102      1     22     294
#> 5 All causes Heari… Perce… 3.02e-2 YLDs  3.88e-2 2.36e-2 United… Fema… All …  2019       3     102      2     22     294
#> # … with 1,387 more rows, 3 more variables: rei_id <dbl>, metric_id <dbl>, measure <chr>, and abbreviated variable
#> #   names ¹​location, ²​measure_id, ³​location_id, ⁴​cause_id
#> # ℹ Use `print(n = ...)` to see more rows, and `colnames()` to see all variable names
…
#>   - Enter search term;
#>   - Enter 'b' to go back;
#>   - Enter 'q' to quitq
#> 
#> Returning last category chosen...
#> [1] "Environmental/occupational risks"
#> > gbd_browse_rei(gbd)
#> Category:
#> # A tibble: 1 × 6
#>   rei_id rei_name         parent_id parent_name      level sort_order
#>    <dbl> <chr>                <dbl> <chr>            <dbl>      <dbl>
#> 1    169 all risk factors       169 all risk factors     0          1
#> 
#> Data already downloaded for this parent category:
#> # A tibble: 753 × 19
#>   cause       rei   metric     val measure     upper   lower locat…¹ sex   age    year measu…² locat…³ sex_id age_id cause…⁴
#>   <chr>       <chr> <chr>    <dbl> <chr>   <dbl>   <dbl> <chr>   <chr> <chr> <dbl>   <dbl>   <dbl>  <dbl>  <dbl>   <dbl>
#> 1 All causes  All … Number 3.50e+7 Deat… 3.69e+7 3.29e+7 Global  Both  All …  2019       1       1      3     22     294
#> 2 All causes  All … Perce… 6.19e-1 Deat… 6.38e-1 5.98e-1 Global  Both  All …  2019       1       1      3     22     294
#> 3 All causes  All … Rate   4.52e+2 Deat… 4.77e+2 4.26e+2 Global  Both  All …  2019       1       1      3     22     294
#> 4 Cardiovasc… All … Number 1.60e+7 Deat… 1.70e+7 1.47e+7 Global  Both  All …  2019       1       1      3     22     491
#> 5 Cardiovasc… All … Perce… 8.60e-1 Deat… 8.82e-1 8.37e-1 Global  Both  All …  2019       1       1      3     22     491
#> # … with 748 more rows, 3 more variables: rei_id <dbl>, metric_id <dbl>, measure <chr>, and abbreviated variable names
#> #   ¹​location, ²​measure_id, ³​location_id, ⁴​cause_id
#> # ℹ Use `print(n = ...)` to see more rows, and `colnames()` to see all variable names
…
#>   - Hit return without input to pick first row;
#>   - Enter search term;
#>   - Enter 'b' to go back;
#>   - Enter 'q' to quit
#>   
#>   2
#>   
#> Category:
#> # A tibble: 1 × 6
#>   rei_id rei_name         parent_id parent_name      level sort_order
#>    <dbl> <chr>                <dbl> <chr>            <dbl>      <dbl>
#> 1    203 behavioral risks       169 all risk factors     1          3
#> 
#> Data already downloaded for this parent category:
#> # A tibble: 381 × 19
#>   cause       rei   metric     val measure     upper   lower locat…¹ sex   age    year measu…² locat…³ sex_id age_id cause…⁴
#>   <chr>       <chr> <chr>    <dbl> <chr>   <dbl>   <dbl> <chr>   <chr> <chr> <dbl>   <dbl>   <dbl>  <dbl>  <dbl>   <dbl>
#> 1 All causes  Beha… Number 2.16e+7 Deat… 2.34e+7 2.00e+7 Global  Both  All …  2019       1       1      3     22     294
#> 2 All causes  Beha… Perce… 3.82e-1 Deat… 4.08e-1 3.61e-1 Global  Both  All …  2019       1       1      3     22     294
#> 3 All causes  Beha… Rate   2.79e+2 Deat… 3.03e+2 2.59e+2 Global  Both  All …  2019       1       1      3     22     294
#> 4 Cardiovasc… Beha… Number 9.16e+6 Deat… 1.05e+7 8.06e+6 Global  Both  All …  2019       1       1      3     22     491
#> 5 Cardiovasc… Beha… Perce… 4.93e-1 Deat… 5.50e-1 4.43e-1 Global  Both  All …  2019       1       1      3     22     491
#> # … with 376 more rows, 3 more variables: rei_id <dbl>, metric_id <dbl>, measure <chr>, and abbreviated variable names
#> #   ¹​location, ²​measure_id, ³​location_id, ⁴​cause_id
#> # ℹ Use `print(n = ...)` to see more rows, and `colnames()` to see all variable names
…
